{
	"info": {
		"_postman_id": "9fce9f26-c91e-4a8a-9394-0139686e286a",
		"name": "Booking",
		"schema": "https://schema.getpostman.com/json/collection/v2.1.0/collection.json"
	},
	"item": [
		{
			"name": "GETbooking",
			"request": {
				"method": "GET",
				"header": [],
				"url": {
					"raw": "https://restful-booker.herokuapp.com/booking?firstname&lastname",
					"protocol": "https",
					"host": [
						"restful-booker",
						"herokuapp",
						"com"
					],
					"path": [
						"booking"
					],
					"query": [
						{
							"key": "firstname",
							"value": null
						},
						{
							"key": "lastname",
							"value": null
						}
					]
				}
			},
			"response": []
		},
		{
			"name": "POST Login",
			"request": {
				"method": "POST",
				"header": [],
				"body": {
					"mode": "raw",
					"raw": "{\"username\" : \"admin\",\r\n    \"password\" : \"password123\"\r\n}",
					"options": {
						"raw": {
							"language": "json"
						}
					}
				},
				"url": {
					"raw": "https://restful-booker.herokuapp.com/auth",
					"protocol": "https",
					"host": [
						"restful-booker",
						"herokuapp",
						"com"
					],
					"path": [
						"auth"
					]
				}
			},
			"response": []
		},
		{
			"name": "Create booking",
			"request": {
				"method": "POST",
				"header": [],
				"body": {
					"mode": "raw",
					"raw": "{\r\n    \"firstname\" : \"Jim\",\r\n    \"lastname\" : \"Brown\",\r\n    \"totalprice\" : 111,\r\n    \"depositpaid\" : true,\r\n    \"bookingdates\" : {\r\n        \"checkin\" : \"2018-01-01\",\r\n        \"checkout\" : \"2019-01-01\"\r\n    },\r\n    \"additionalneeds\" : \"Breakfast\"\r\n}",
					"options": {
						"raw": {
							"language": "json"
						}
					}
				},
				"url": {
					"raw": "https://restful-booker.herokuapp.com/booking",
					"protocol": "https",
					"host": [
						"restful-booker",
						"herokuapp",
						"com"
					],
					"path": [
						"booking"
					]
				}
			},
			"response": []
		},
		{
			"name": "Update booking",
			"request": {
				"method": "PUT",
				"header": [],
				"body": {
					"mode": "raw",
					"raw": "{\r\n    \"firstname\": \"jacky\",\r\n    \"lastname\": \"Jackson\",\r\n    \"totalprice\": 747,\r\n    \"depositpaid\": false,\r\n    \"bookingdates\": {\r\n        \"checkin\": \"2020-05-12\",\r\n        \"checkout\": \"2021-02-10\"\r\n    },\r\n    \"additionalneeds\": \"Breakfast\"\r\n}",
					"options": {
						"raw": {
							"language": "json"
						}
					}
				},
				"url": {
					"raw": "https://restful-booker.herokuapp.com/booking/:id",
					"protocol": "https",
					"host": [
						"restful-booker",
						"herokuapp",
						"com"
					],
					"path": [
						"booking",
						":id"
					],
					"variable": [
						{
							"key": "id",
							"value": ""
						}
					]
				}
			},
			"response": []
		},
		{
			"name": "Update booking-Negative scemario",
			"request": {
				"method": "PUT",
				"header": [],
				"body": {
					"mode": "raw",
					"raw": "{\r\n    \"firstname\": \"jacky\",\r\n    \"lastname\": \"Jackson\",\r\n    \"totalprice\": 747,\r\n    \"depositpaid\": false,\r\n    \"bookingdates\": {\r\n        \"checkin\": \"2020-05-12\",\r\n        \"checkout\": \"2021-02-10\"\r\n    },\r\n    \"additionalneeds\": \"Breakfast\"\r\n}",
					"options": {
						"raw": {
							"language": "json"
						}
					}
				},
				"url": {
					"raw": "https://restful-booker.herokuapp.com/booking/:id",
					"protocol": "https",
					"host": [
						"restful-booker",
						"herokuapp",
						"com"
					],
					"path": [
						"booking",
						":id"
					],
					"variable": [
						{
							"key": "id",
							"value": ""
						}
					]
				}
			},
			"response": []
		},
		{
			"name": "Delete booking-forbidden",
			"request": {
				"method": "DELETE",
				"header": [],
				"body": {
					"mode": "raw",
					"raw": "curl -X DELETE \\\r\n  https://restful-booker.herokuapp.com/booking/1 \\\r\n  -H 'Content-Type: application/json' \\\r\n  -H 'Cookie: token=abc123'"
				},
				"url": {
					"raw": "https://restful-booker.herokuapp.com/booking/1",
					"protocol": "https",
					"host": [
						"restful-booker",
						"herokuapp",
						"com"
					],
					"path": [
						"booking",
						"1"
					]
				}
			},
			"response": []
		},
		{
			"name": "Delete booking-Auth scenario error",
			"request": {
				"method": "DELETE",
				"header": [],
				"body": {
					"mode": "raw",
					"raw": "curl -X DELETE \\\r\n  https://restful-booker.herokuapp.com/booking/1 \\\r\n  -H 'Content-Type: application/json' \\\r\n  -H 'Authorisation: Basic YWRtaW46cGFzc3dvcmQxMjM='"
				},
				"url": {
					"raw": "https://restful-booker.herokuapp.com/booking/1",
					"protocol": "https",
					"host": [
						"restful-booker",
						"herokuapp",
						"com"
					],
					"path": [
						"booking",
						"1"
					]
				}
			},
			"response": []
		},
		{
			"name": "Delete booking-order no 13",
			"request": {
				"method": "DELETE",
				"header": [],
				"url": {
					"raw": "https://restful-booker.herokuapp.com/booking/13",
					"protocol": "https",
					"host": [
						"restful-booker",
						"herokuapp",
						"com"
					],
					"path": [
						"booking",
						"13"
					]
				}
			},
			"response": []
		},
		{
			"name": "POST- Invalid login scenario",
			"request": {
				"method": "POST",
				"header": [],
				"body": {
					"mode": "raw",
					"raw": "{\"username\" : \"admin\",\r\n    \"password\" : \"password000\"\r\n}"
				},
				"url": {
					"raw": "https://restful-booker.herokuapp.com/auth",
					"protocol": "https",
					"host": [
						"restful-booker",
						"herokuapp",
						"com"
					],
					"path": [
						"auth"
					]
				}
			},
			"response": []
		},
		{
			"name": "POST-Invalid first name scenario",
			"request": {
				"method": "POST",
				"header": [],
				"body": {
					"mode": "raw",
					"raw": "{\r\n    \"bookingid\": 21,\r\n    \"booking\": {\r\n        \"firstname\": \"111))**\",\r\n        \"lastname\": \"Brown\",\r\n        \"totalprice\": 111,\r\n        \"depositpaid\": true,\r\n        \"bookingdates\": {\r\n            \"checkin\": \"2018-01-01\",\r\n            \"checkout\": \"2019-01-01\"\r\n        },\r\n        \"additionalneeds\": \"Breakfast\"\r\n    }\r\n}",
					"options": {
						"raw": {
							"language": "json"
						}
					}
				},
				"url": {
					"raw": "https://restful-booker.herokuapp.com/auth",
					"protocol": "https",
					"host": [
						"restful-booker",
						"herokuapp",
						"com"
					],
					"path": [
						"auth"
					]
				}
			},
			"response": []
		},
		{
			"name": "POST- Invalid booking ID scenario",
			"request": {
				"method": "POST",
				"header": [],
				"body": {
					"mode": "raw",
					"raw": "{\r\n    \"bookingid\": 78,\r\n    \"booking\": {\r\n        \"firstname\": \"Jack,\r\n        \"lastname\": \"Brown\",\r\n        \"totalprice\": 111,\r\n        \"depositpaid\": true,\r\n        \"bookingdates\": {\r\n            \"checkin\": \"2018-01-01\",\r\n            \"checkout\": \"2019-01-01\"\r\n        },\r\n        \"additionalneeds\": \"Breakfast\"\r\n    }\r\n}",
					"options": {
						"raw": {
							"language": "json"
						}
					}
				},
				"url": {
					"raw": "https://restful-booker.herokuapp.com/booking",
					"protocol": "https",
					"host": [
						"restful-booker",
						"herokuapp",
						"com"
					],
					"path": [
						"booking"
					]
				}
			},
			"response": []
		},
		{
			"name": "Delete by giving valid token ID",
			"request": {
				"method": "DELETE",
				"header": [],
				"body": {
					"mode": "raw",
					"raw": "curl -X DELETE \\\r\n  https://restful-booker.herokuapp.com/booking/1 \\\r\n  -H 'Content-Type: application/json' \\\r\n  -H 'Cookie: token=1623a23fac5f025"
				},
				"url": {
					"raw": "https://restful-booker.herokuapp.com/booking/1",
					"protocol": "https",
					"host": [
						"restful-booker",
						"herokuapp",
						"com"
					],
					"path": [
						"booking",
						"1"
					]
				}
			},
			"response": []
		}
	]
}